mips/mips.vcd
$date
  Sat Jun 29 21:02:48 2024
$end
$version
  GHDL v0
$end
$timescale
  1 fs
$end
$scope module standard $end
$upscope $end
$scope module std_logic_1164 $end
$upscope $end
$scope module numeric_std $end
$upscope $end
$scope module mips_tb $end
$var reg 1 ! clk $end
$var reg 1 " rst $end
$var reg 1 # simulation_done $end
$scope module uut $end
$var reg 1 $ clk $end
$var reg 1 % rst $end
$var reg 1 & regwrite $end
$var reg 1 ' alusrc $end
$var reg 1 ( memwrite $end
$var reg 1 ) memread $end
$var reg 1 * regdst $end
$var reg 1 + memtoreg $end
$var reg 1 , jump $end
$var reg 1 - zero $end
$var reg 1 . branch $end
$var reg 1 / branchtaken $end
$var reg 2 0 aluop[1:0] $end
$var reg 4 1 alucontrol_out[3:0] $end
$var reg 5 2 mux_reg_out[4:0] $end
$var reg 32 3 pc_fa_im[31:0] $end
$var reg 32 4 fa_pc_out[31:0] $end
$var reg 32 5 im_out[31:0] $end
$var reg 32 6 one[31:0] $end
$var reg 32 7 alu_out[31:0] $end
$var reg 32 8 regout1[31:0] $end
$var reg 32 9 regout2[31:0] $end
$var reg 32 : datatowrite[31:0] $end
$var reg 32 ; mux_alu_out[31:0] $end
$var reg 32 < signext_out[31:0] $end
$var reg 32 = ram_out[31:0] $end
$var reg 32 > shiftjump2muxjump[31:0] $end
$var reg 32 ? muxjump2pc[31:0] $end
$var reg 32 @ muxbranch2muxjump[31:0] $end
$var reg 32 A alu_branch_out[31:0] $end
$scope module fa_pc $end
$var reg 32 B i0[31:0] $end
$var reg 32 C i1[31:0] $end
$var reg 1 D ci[0:0] $end
$var reg 32 E s[31:0] $end
$var reg 1 F co $end
$var reg 33 G ts[32:0] $end
$upscope $end
$scope module fa_branch $end
$var reg 32 H i0[31:0] $end
$var reg 32 I i1[31:0] $end
$var reg 1 J ci[0:0] $end
$var reg 32 K s[31:0] $end
$var reg 1 L co $end
$var reg 33 M ts[32:0] $end
$upscope $end
$scope module pc_inst $end
$var reg 32 N input[31:0] $end
$var reg 1 O clk $end
$var reg 1 P rst $end
$var reg 32 Q output[31:0] $end
$var reg 32 R pc_internal[31:0] $end
$upscope $end
$scope module imem_inst $end
$var reg 32 S addr[31:0] $end
$var reg 32 T instruction[31:0] $end
$comment mem is not handled $end
$upscope $end
$scope module register_file_inst $end
$var reg 5 U regin1[4:0] $end
$var reg 5 V regin2[4:0] $end
$var reg 5 W regtowrite[4:0] $end
$var reg 1 X regwrite $end
$var reg 32 Y datatowrite[31:0] $end
$var reg 32 Z regout1[31:0] $end
$var reg 32 [ regout2[31:0] $end
$comment rs is not handled $end
$var reg 32 \ x[31:0] $end
$upscope $end
$scope module control_inst $end
$var reg 1 ] clk $end
$var reg 6 ^ input[5:0] $end
$var reg 2 _ aluop[1:0] $end
$var reg 1 ` alusrc $end
$var reg 1 a regdst $end
$var reg 1 b regwrite $end
$var reg 1 c memread $end
$var reg 1 d memwrite $end
$var reg 1 e memtoreg $end
$var reg 1 f branch $end
$var reg 1 g jump $end
$upscope $end
$scope module alu_control_inst $end
$var reg 2 h op[1:0] $end
$var reg 6 i funct[5:0] $end
$var reg 4 j ctrl[3:0] $end
$upscope $end
$scope module alu_inst $end
$var reg 32 k i0[31:0] $end
$var reg 32 l i1[31:0] $end
$var reg 4 m op[3:0] $end
$var reg 1 n zero $end
$var reg 32 o result[31:0] $end
$var reg 32 p fa_out[31:0] $end
$var reg 32 q x[31:0] $end
$var reg 1 r co $end
$scope module fa $end
$var reg 32 s i0[31:0] $end
$var reg 32 t i1[31:0] $end
$var reg 1 u ci[0:0] $end
$var reg 32 v s[31:0] $end
$var reg 1 w co $end
$var reg 33 x ts[32:0] $end
$upscope $end
$upscope $end
$scope module data_mem_inst $end
$var reg 1 y clk $end
$var reg 1 z rst $end
$var reg 32 { input[31:0] $end
$var reg 32 | writedata[31:0] $end
$var reg 1 } memread $end
$var reg 1 !" memwrite $end
$var reg 32 "" output[31:0] $end
$comment ram is not handled $end
$upscope $end
$scope module mux_reg $end
$var reg 5 #" i0[4:0] $end
$var reg 5 $" i1[4:0] $end
$var reg 5 %" o[4:0] $end
$var reg 1 &" sel $end
$upscope $end
$scope module mux_alu_in $end
$var reg 32 '" i0[31:0] $end
$var reg 32 (" i1[31:0] $end
$var reg 32 )" o[31:0] $end
$var reg 1 *" sel $end
$upscope $end
$scope module mux_ram $end
$var reg 32 +" i0[31:0] $end
$var reg 32 ," i1[31:0] $end
$var reg 32 -" o[31:0] $end
$var reg 1 ." sel $end
$upscope $end
$scope module mux_jump $end
$var reg 32 /" i0[31:0] $end
$var reg 32 0" i1[31:0] $end
$var reg 32 1" o[31:0] $end
$var reg 1 2" sel $end
$upscope $end
$scope module mux_branch $end
$var reg 32 3" i0[31:0] $end
$var reg 32 4" i1[31:0] $end
$var reg 32 5" o[31:0] $end
$var reg 1 6" sel $end
$upscope $end
$scope module signext_inst $end
$var reg 16 7" input[15:0] $end
$var reg 32 8" output[31:0] $end
$upscope $end
$upscope $end
$upscope $end
$enddefinitions $end
#0
1!
1"
0#
1$
1%
1&
1'
0(
0)
0*
0+
0,
1-
0.
0/
b00 0
b0010 1
b00000 2
b00000000000000000000000000000000 3
b00000000000000000000000000000001 4
b00100000000000000000000000000000 5
b00000000000000000000000000000001 6
bXXXXXXXXXXXXXXXXXXXXXXXXXXXXXXXX 7
b00000000000000000000000000000000 8
b00000000000000000000000000000000 9
bXXXXXXXXXXXXXXXXXXXXXXXXXXXXXXXX :
b00000000000000000000000000000000 ;
b00000000000000000000000000000000 <
b00000000000000000000000000000000 =
b00000000000000000000000000000000 >
b00000000000000000000000000000001 ?
b00000000000000000000000000000001 @
b00000000000000000000000000000001 A
b00000000000000000000000000000000 B
b00000000000000000000000000000001 C
b0 D
b00000000000000000000000000000001 E
0F
b000000000000000000000000000000001 G
b00000000000000000000000000000001 H
b00000000000000000000000000000000 I
b0 J
b00000000000000000000000000000001 K
0L
b000000000000000000000000000000001 M
b00000000000000000000000000000001 N
1O
1P
b00000000000000000000000000000000 Q
b00000000000000000000000000000000 R
b00000000000000000000000000000000 S
b00100000000000000000000000000000 T
b00000 U
b00000 V
b00000 W
1X
bXXXXXXXXXXXXXXXXXXXXXXXXXXXXXXXX Y
b00000000000000000000000000000000 Z
b00000000000000000000000000000000 [
bXXXXXXXXXXXXXXXXXXXXXXXXXXXXXXXX \
1]
b001000 ^
b00 _
1`
0a
1b
0c
0d
0e
0f
0g
b00 h
b000000 i
b0010 j
b00000000000000000000000000000000 k
b00000000000000000000000000000000 l
b0010 m
1n
bXXXXXXXXXXXXXXXXXXXXXXXXXXXXXXXX o
b00000000000000000000000000000000 p
bXXXXXXXXXXXXXXXXXXXXXXXXXXXXXXXX q
0r
b00000000000000000000000000000000 s
b00000000000000000000000000000000 t
b0 u
b00000000000000000000000000000000 v
0w
b000000000000000000000000000000000 x
1y
1z
bXXXXXXXXXXXXXXXXXXXXXXXXXXXXXXXX {
b00000000000000000000000000000000 |
0}
0!"
b00000000000000000000000000000000 ""
b00000 #"
b00000 $"
b00000 %"
0&"
b00000000000000000000000000000000 '"
b00000000000000000000000000000000 ("
b00000000000000000000000000000000 )"
1*"
bXXXXXXXXXXXXXXXXXXXXXXXXXXXXXXXX +"
b00000000000000000000000000000000 ,"
bXXXXXXXXXXXXXXXXXXXXXXXXXXXXXXXX -"
0."
b00000000000000000000000000000001 /"
b00000000000000000000000000000000 0"
b00000000000000000000000000000001 1"
02"
b00000000000000000000000000000001 3"
b00000000000000000000000000000001 4"
b00000000000000000000000000000001 5"
06"
b0000000000000000 7"
b00000000000000000000000000000000 8"
#10000000
0!
0$
0O
0]
0y
#20000000
1!
0"
1$
0%
b00010 2
b00000000000000000000000000000001 3
b00000000000000000000000000000010 4
b00100000010000100000000000000000 5
b00000001000010000000000000000000 >
b00000000000000000000000000000010 ?
b00000000000000000000000000000010 @
b00000000000000000000000000000010 A
b00000000000000000000000000000001 B
b00000000000000000000000000000010 E
b000000000000000000000000000000010 G
b00000000000000000000000000000010 H
b00000000000000000000000000000010 K
b000000000000000000000000000000010 M
b00000000000000000000000000000010 N
1O
0P
b00000000000000000000000000000001 Q
b00000000000000000000000000000001 R
b00000000000000000000000000000001 S
b00100000010000100000000000000000 T
b00010 U
b00010 V
b00010 W
1]
1y
0z
b00010 #"
b00010 %"
b00000000000000000000000000000010 /"
b00000001000010000000000000000000 0"
b00000000000000000000000000000010 1"
b00000000000000000000000000000010 3"
b00000000000000000000000000000010 4"
b00000000000000000000000000000010 5"
#30000000
0!
0$
0O
0]
0y
#40000000
1!
1$
b00000000000000000000000000000010 3
b00000000000000000000000000000011 4
b00100000100000100000000000000000 5
b00000010000010000000000000000000 >
b00000000000000000000000000000011 ?
b00000000000000000000000000000011 @
b00000000000000000000000000000011 A
b00000000000000000000000000000010 B
b00000000000000000000000000000011 E
b000000000000000000000000000000011 G
b00000000000000000000000000000011 H
b00000000000000000000000000000011 K
b000000000000000000000000000000011 M
b00000000000000000000000000000011 N
1O
b00000000000000000000000000000010 Q
b00000000000000000000000000000010 R
b00000000000000000000000000000010 S
b00100000100000100000000000000000 T
b00100 U
1]
1y
b00000000000000000000000000000011 /"
b00000010000010000000000000000000 0"
b00000000000000000000000000000011 1"
b00000000000000000000000000000011 3"
b00000000000000000000000000000011 4"
b00000000000000000000000000000011 5"
#50000000
0!
0$
0O
0]
0y
#60000000
1!
1$
0-
b00011 2
b00000000000000000000000000000011 3
b00000000000000000000000000000100 4
b00100000000000110000000000000001 5
b00000000000000000000000000000001 ;
b00000000000000000000000000000001 <
b00000000000011000000000000000100 >
b00000000000000000000000000000100 ?
b00000000000000000000000000000100 @
b00000000000000000000000000000101 A
b00000000000000000000000000000011 B
b00000000000000000000000000000100 E
b000000000000000000000000000000100 G
b00000000000000000000000000000100 H
b00000000000000000000000000000001 I
b00000000000000000000000000000101 K
b000000000000000000000000000000101 M
b00000000000000000000000000000100 N
1O
b00000000000000000000000000000011 Q
b00000000000000000000000000000011 R
b00000000000000000000000000000011 S
b00100000000000110000000000000001 T
b00000 U
b00011 V
b00011 W
1]
b000001 i
b00000000000000000000000000000001 l
0n
b00000000000000000000000000000001 p
b00000000000000000000000000000001 t
b00000000000000000000000000000001 v
b000000000000000000000000000000001 x
1y
b00011 #"
b00011 %"
b00000000000000000000000000000001 ("
b00000000000000000000000000000001 )"
b00000000000000000000000000000100 /"
b00000000000011000000000000000100 0"
b00000000000000000000000000000100 1"
b00000000000000000000000000000100 3"
b00000000000000000000000000000101 4"
b00000000000000000000000000000100 5"
b0000000000000001 7"
b00000000000000000000000000000001 8"
#70000000
0!
0$
0O
0]
0y
#80000000
1!
1$
b00101 2
b00000000000000000000000000000100 3
b00000000000000000000000000000101 4
b00100000000001010000000000000011 5
b00000000000000000000000000000011 ;
b00000000000000000000000000000011 <
b00000000000101000000000000001100 >
b00000000000000000000000000000101 ?
b00000000000000000000000000000101 @
b00000000000000000000000000001000 A
b00000000000000000000000000000100 B
b00000000000000000000000000000101 E
b000000000000000000000000000000101 G
b00000000000000000000000000000101 H
b00000000000000000000000000000011 I
b00000000000000000000000000001000 K
b000000000000000000000000000001000 M
b00000000000000000000000000000101 N
1O
b00000000000000000000000000000100 Q
b00000000000000000000000000000100 R
b00000000000000000000000000000100 S
b00100000000001010000000000000011 T
b00101 V
b00101 W
1]
b000011 i
b00000000000000000000000000000011 l
b00000000000000000000000000000011 p
b00000000000000000000000000000011 t
b00000000000000000000000000000011 v
b000000000000000000000000000000011 x
1y
b00101 #"
b00101 %"
b00000000000000000000000000000011 ("
b00000000000000000000000000000011 )"
b00000000000000000000000000000101 /"
b00000000000101000000000000001100 0"
b00000000000000000000000000000101 1"
b00000000000000000000000000000101 3"
b00000000000000000000000000001000 4"
b00000000000000000000000000000101 5"
b0000000000000011 7"
b00000000000000000000000000000011 8"
#90000000
0!
0$
0O
0]
0y
#100000000
1!
1$
0'
1*
1-
b10 0
b00110 2
b00000000000000000000000000000101 3
b00000000000000000000000000000110 4
b00000000011000000011000000100000 5
b00000000000000000000000000000000 ;
b00000000000000000011000000100000 <
b00000001100000001100000010000000 >
b00000000000000000000000000000110 ?
b00000000000000000000000000000110 @
b00000000000000000011000000100110 A
b00000000000000000000000000000101 B
b00000000000000000000000000000110 E
b000000000000000000000000000000110 G
b00000000000000000000000000000110 H
b00000000000000000011000000100000 I
b00000000000000000011000000100110 K
b000000000000000000011000000100110 M
b00000000000000000000000000000110 N
1O
b00000000000000000000000000000101 Q
b00000000000000000000000000000101 R
b00000000000000000000000000000101 S
b00000000011000000011000000100000 T
b00011 U
b00000 V
b00110 W
1]
b000000 ^
b10 _
0`
1a
b10 h
b100000 i
b00000000000000000000000000000000 l
1n
b00000000000000000000000000000000 p
b00000000000000000000000000000000 t
b00000000000000000000000000000000 v
b000000000000000000000000000000000 x
1y
b00000 #"
b00110 $"
b00110 %"
1&"
b00000000000000000011000000100000 ("
b00000000000000000000000000000000 )"
0*"
b00000000000000000000000000000110 /"
b00000001100000001100000010000000 0"
b00000000000000000000000000000110 1"
b00000000000000000000000000000110 3"
b00000000000000000011000000100110 4"
b00000000000000000000000000000110 5"
b0011000000100000 7"
b00000000000000000011000000100000 8"
#110000000
0!
0$
0O
0]
0y
#120000000
1!
1$
0&
1'
1(
0*
b00 0
b0010 1
b00110 2
b00000000000000000000000000000110 3
b00000000000000000000000000000111 4
b10101100100001100000000000000000 5
b00000000000000000000000000000000 <
b00000010000110000000000000000000 >
b00000000000000000000000000000111 ?
b00000000000000000000000000000111 @
b00000000000000000000000000000111 A
b00000000000000000000000000000110 B
b00000000000000000000000000000111 E
b000000000000000000000000000000111 G
b00000000000000000000000000000111 H
b00000000000000000000000000000000 I
b00000000000000000000000000000111 K
b000000000000000000000000000000111 M
b00000000000000000000000000000111 N
1O
b00000000000000000000000000000110 Q
b00000000000000000000000000000110 R
b00000000000000000000000000000110 S
b10101100100001100000000000000000 T
b00100 U
b00110 V
b00110 W
0X
1]
b101011 ^
b00 _
1`
0a
0b
1d
b00 h
b000000 i
b0010 j
b0010 m
1y
1!"
b00110 #"
b00000 $"
b00110 %"
0&"
b00000000000000000000000000000000 ("
1*"
b00000000000000000000000000000111 /"
b00000010000110000000000000000000 0"
b00000000000000000000000000000111 1"
b00000000000000000000000000000111 3"
b00000000000000000000000000000111 4"
b00000000000000000000000000000111 5"
b0000000000000000 7"
b00000000000000000000000000000000 8"
#130000000
0!
0$
0O
0]
0y
#140000000
1!
1$
1&
0(
0-
b00011 2
b00000000000000000000000000000111 3
b00000000000000000000000000001000 4
b00100000011000110000000000000001 5
b00000000000000000000000000000001 ;
b00000000000000000000000000000001 <
b00000001100011000000000000000100 >
b00000000000000000000000000001000 ?
b00000000000000000000000000001000 @
b00000000000000000000000000001001 A
b00000000000000000000000000000111 B
b00000000000000000000000000001000 E
b000000000000000000000000000001000 G
b00000000000000000000000000001000 H
b00000000000000000000000000000001 I
b00000000000000000000000000001001 K
b000000000000000000000000000001001 M
b00000000000000000000000000001000 N
1O
b00000000000000000000000000000111 Q
b00000000000000000000000000000111 R
b00000000000000000000000000000111 S
b00100000011000110000000000000001 T
b00011 U
b00011 V
b00011 W
1X
1]
b001000 ^
1b
0d
b000001 i
b00000000000000000000000000000001 l
0n
b00000000000000000000000000000001 p
b00000000000000000000000000000001 t
b00000000000000000000000000000001 v
b000000000000000000000000000000001 x
1y
0!"
b00011 #"
b00011 %"
b00000000000000000000000000000001 ("
b00000000000000000000000000000001 )"
b00000000000000000000000000001000 /"
b00000001100011000000000000000100 0"
b00000000000000000000000000001000 1"
b00000000000000000000000000001000 3"
b00000000000000000000000000001001 4"
b00000000000000000000000000001000 5"
b0000000000000001 7"
b00000000000000000000000000000001 8"
#150000000
0!
0$
0O
0]
0y
#160000000
1!
1$
b00100 2
b00000000000000000000000000001000 3
b00000000000000000000000000001001 4
b00100000100001000000000000000001 5
b00000010000100000000000000000100 >
b00000000000000000000000000001001 ?
b00000000000000000000000000001001 @
b00000000000000000000000000001010 A
b00000000000000000000000000001000 B
b00000000000000000000000000001001 E
b000000000000000000000000000001001 G
b00000000000000000000000000001001 H
b00000000000000000000000000001010 K
b000000000000000000000000000001010 M
b00000000000000000000000000001001 N
1O
b00000000000000000000000000001000 Q
b00000000000000000000000000001000 R
b00000000000000000000000000001000 S
b00100000100001000000000000000001 T
b00100 U
b00100 V
b00100 W
1]
1y
b00100 #"
b00100 %"
b00000000000000000000000000001001 /"
b00000010000100000000000000000100 0"
b00000000000000000000000000001001 1"
b00000000000000000000000000001001 3"
b00000000000000000000000000001010 4"
b00000000000000000000000000001001 5"
#170000000
0!
0$
0O
0]
0y
#180000000
1!
1$
b00101 2
b00000000000000000000000000001001 3
b00000000000000000000000000001010 4
b00100000101001011111111111111111 5
b11111111111111111111111111111111 ;
b11111111111111111111111111111111 <
b00000010100101111111111111111100 >
b00000000000000000000000000001010 ?
b00000000000000000000000000001010 @
b00000000000000000000000000001001 A
b00000000000000000000000000001001 B
b00000000000000000000000000001010 E
b000000000000000000000000000001010 G
b00000000000000000000000000001010 H
b11111111111111111111111111111111 I
b00000000000000000000000000001001 K
b000000000000000000000000000001001 M
b00000000000000000000000000001010 N
1O
b00000000000000000000000000001001 Q
b00000000000000000000000000001001 R
b00000000000000000000000000001001 S
b00100000101001011111111111111111 T
b00101 U
b00101 V
b00101 W
1]
b111111 i
b11111111111111111111111111111111 l
b11111111111111111111111111111111 p
1r
b11111111111111111111111111111111 t
b11111111111111111111111111111111 v
1w
b111111111111111111111111111111111 x
1y
b00101 #"
b11111 $"
b00101 %"
b11111111111111111111111111111111 ("
b11111111111111111111111111111111 )"
b00000000000000000000000000001010 /"
b00000010100101111111111111111100 0"
b00000000000000000000000000001010 1"
b00000000000000000000000000001010 3"
b00000000000000000000000000001001 4"
b00000000000000000000000000001010 5"
b1111111111111111 7"
b11111111111111111111111111111111 8"
#190000000
0!
0$
0O
0]
0y
#200000000
1!
1$
0&
0'
1-
1.
1/
b01 0
b0110 1
b00000 2
b00000000000000000000000000001010 3
b00000000000000000000000000001011 4
b00010100101000001111111111111010 5
b00000000000000000000000000000000 ;
b11111111111111111111111111111010 <
b00000010100000111111111111101000 >
b00000000000000000000000000000101 ?
b00000000000000000000000000000101 @
b00000000000000000000000000000101 A
b00000000000000000000000000001010 B
b00000000000000000000000000001011 E
b000000000000000000000000000001011 G
b00000000000000000000000000001011 H
b11111111111111111111111111111010 I
b00000000000000000000000000000101 K
b000000000000000000000000000000101 M
b00000000000000000000000000000101 N
1O
b00000000000000000000000000001010 Q
b00000000000000000000000000001010 R
b00000000000000000000000000001010 S
b00010100101000001111111111111010 T
b00000 V
b00000 W
0X
1]
b000101 ^
b01 _
0`
0b
1f
b01 h
b111010 i
b0110 j
b00000000000000000000000000000000 l
b0110 m
1n
b00000000000000000000000000000000 p
0r
b00000000000000000000000000000000 t
b00000000000000000000000000000000 v
0w
b000000000000000000000000000000000 x
1y
b00000 #"
b00000 %"
b11111111111111111111111111111010 ("
b00000000000000000000000000000000 )"
0*"
b00000000000000000000000000000101 /"
b00000010100000111111111111101000 0"
b00000000000000000000000000000101 1"
b00000000000000000000000000001011 3"
b00000000000000000000000000000101 4"
b00000000000000000000000000000101 5"
16"
b1111111111111010 7"
b11111111111111111111111111111010 8"
#210000000
0!
0$
0O
0]
0y
#220000000
1!
1$
1&
1*
0.
0/
b10 0
b0010 1
b00110 2
b00000000000000000000000000000101 3
b00000000000000000000000000000110 4
b00000000011000000011000000100000 5
b00000000000000000011000000100000 <
b00000001100000001100000010000000 >
b00000000000000000000000000000110 ?
b00000000000000000000000000000110 @
b00000000000000000011000000100110 A
b00000000000000000000000000000101 B
b00000000000000000000000000000110 E
b000000000000000000000000000000110 G
b00000000000000000000000000000110 H
b00000000000000000011000000100000 I
b00000000000000000011000000100110 K
b000000000000000000011000000100110 M
b00000000000000000000000000000110 N
1O
b00000000000000000000000000000101 Q
b00000000000000000000000000000101 R
b00000000000000000000000000000101 S
b00000000011000000011000000100000 T
b00011 U
b00110 W
1X
1]
b000000 ^
b10 _
1a
1b
0f
b10 h
b100000 i
b0010 j
b0010 m
1y
b00110 $"
b00110 %"
1&"
b00000000000000000011000000100000 ("
b00000000000000000000000000000110 /"
b00000001100000001100000010000000 0"
b00000000000000000000000000000110 1"
b00000000000000000000000000000110 3"
b00000000000000000011000000100110 4"
b00000000000000000000000000000110 5"
06"
b0011000000100000 7"
b00000000000000000011000000100000 8"
#230000000
0!
0$
0O
0]
0y
#240000000
1!
1$
0&
1'
1(
0*
b00 0
b0010 1
b00110 2
b00000000000000000000000000000110 3
b00000000000000000000000000000111 4
b10101100100001100000000000000000 5
b00000000000000000000000000000000 <
b00000010000110000000000000000000 >
b00000000000000000000000000000111 ?
b00000000000000000000000000000111 @
b00000000000000000000000000000111 A
b00000000000000000000000000000110 B
b00000000000000000000000000000111 E
b000000000000000000000000000000111 G
b00000000000000000000000000000111 H
b00000000000000000000000000000000 I
b00000000000000000000000000000111 K
b000000000000000000000000000000111 M
b00000000000000000000000000000111 N
1O
b00000000000000000000000000000110 Q
b00000000000000000000000000000110 R
b00000000000000000000000000000110 S
b10101100100001100000000000000000 T
b00100 U
b00110 V
b00110 W
0X
1]
b101011 ^
b00 _
1`
0a
0b
1d
b00 h
b000000 i
b0010 j
b0010 m
1y
1!"
b00110 #"
b00000 $"
b00110 %"
0&"
b00000000000000000000000000000000 ("
1*"
b00000000000000000000000000000111 /"
b00000010000110000000000000000000 0"
b00000000000000000000000000000111 1"
b00000000000000000000000000000111 3"
b00000000000000000000000000000111 4"
b00000000000000000000000000000111 5"
b0000000000000000 7"
b00000000000000000000000000000000 8"
#250000000
0!
0$
0O
0]
0y
#260000000
1!
1$
1&
0(
0-
b00011 2
b00000000000000000000000000000111 3
b00000000000000000000000000001000 4
b00100000011000110000000000000001 5
b00000000000000000000000000000001 ;
b00000000000000000000000000000001 <
b00000001100011000000000000000100 >
b00000000000000000000000000001000 ?
b00000000000000000000000000001000 @
b00000000000000000000000000001001 A
b00000000000000000000000000000111 B
b00000000000000000000000000001000 E
b000000000000000000000000000001000 G
b00000000000000000000000000001000 H
b00000000000000000000000000000001 I
b00000000000000000000000000001001 K
b000000000000000000000000000001001 M
b00000000000000000000000000001000 N
1O
b00000000000000000000000000000111 Q
b00000000000000000000000000000111 R
b00000000000000000000000000000111 S
b00100000011000110000000000000001 T
b00011 U
b00011 V
b00011 W
1X
1]
b001000 ^
1b
0d
b000001 i
b00000000000000000000000000000001 l
0n
b00000000000000000000000000000001 p
b00000000000000000000000000000001 t
b00000000000000000000000000000001 v
b000000000000000000000000000000001 x
1y
0!"
b00011 #"
b00011 %"
b00000000000000000000000000000001 ("
b00000000000000000000000000000001 )"
b00000000000000000000000000001000 /"
b00000001100011000000000000000100 0"
b00000000000000000000000000001000 1"
b00000000000000000000000000001000 3"
b00000000000000000000000000001001 4"
b00000000000000000000000000001000 5"
b0000000000000001 7"
b00000000000000000000000000000001 8"
#270000000
0!
0$
0O
0]
0y
#280000000
1!
1$
b00100 2
b00000000000000000000000000001000 3
b00000000000000000000000000001001 4
b00100000100001000000000000000001 5
b00000010000100000000000000000100 >
b00000000000000000000000000001001 ?
b00000000000000000000000000001001 @
b00000000000000000000000000001010 A
b00000000000000000000000000001000 B
b00000000000000000000000000001001 E
b000000000000000000000000000001001 G
b00000000000000000000000000001001 H
b00000000000000000000000000001010 K
b000000000000000000000000000001010 M
b00000000000000000000000000001001 N
1O
b00000000000000000000000000001000 Q
b00000000000000000000000000001000 R
b00000000000000000000000000001000 S
b00100000100001000000000000000001 T
b00100 U
b00100 V
b00100 W
1]
1y
b00100 #"
b00100 %"
b00000000000000000000000000001001 /"
b00000010000100000000000000000100 0"
b00000000000000000000000000001001 1"
b00000000000000000000000000001001 3"
b00000000000000000000000000001010 4"
b00000000000000000000000000001001 5"
#290000000
0!
0$
0O
0]
0y
#300000000
1!
1$
b00101 2
b00000000000000000000000000001001 3
b00000000000000000000000000001010 4
b00100000101001011111111111111111 5
b11111111111111111111111111111111 ;
b11111111111111111111111111111111 <
b00000010100101111111111111111100 >
b00000000000000000000000000001010 ?
b00000000000000000000000000001010 @
b00000000000000000000000000001001 A
b00000000000000000000000000001001 B
b00000000000000000000000000001010 E
b000000000000000000000000000001010 G
b00000000000000000000000000001010 H
b11111111111111111111111111111111 I
b00000000000000000000000000001001 K
b000000000000000000000000000001001 M
b00000000000000000000000000001010 N
1O
b00000000000000000000000000001001 Q
b00000000000000000000000000001001 R
b00000000000000000000000000001001 S
b00100000101001011111111111111111 T
b00101 U
b00101 V
b00101 W
1]
b111111 i
b11111111111111111111111111111111 l
b11111111111111111111111111111111 p
1r
b11111111111111111111111111111111 t
b11111111111111111111111111111111 v
1w
b111111111111111111111111111111111 x
1y
b00101 #"
b11111 $"
b00101 %"
b11111111111111111111111111111111 ("
b11111111111111111111111111111111 )"
b00000000000000000000000000001010 /"
b00000010100101111111111111111100 0"
b00000000000000000000000000001010 1"
b00000000000000000000000000001010 3"
b00000000000000000000000000001001 4"
b00000000000000000000000000001010 5"
b1111111111111111 7"
b11111111111111111111111111111111 8"
#310000000
0!
0$
0O
0]
0y
#320000000
1!
1$
0&
0'
1-
1.
1/
b01 0
b0110 1
b00000 2
b00000000000000000000000000001010 3
b00000000000000000000000000001011 4
b00010100101000001111111111111010 5
b00000000000000000000000000000000 ;
b11111111111111111111111111111010 <
b00000010100000111111111111101000 >
b00000000000000000000000000000101 ?
b00000000000000000000000000000101 @
b00000000000000000000000000000101 A
b00000000000000000000000000001010 B
b00000000000000000000000000001011 E
b000000000000000000000000000001011 G
b00000000000000000000000000001011 H
b11111111111111111111111111111010 I
b00000000000000000000000000000101 K
b000000000000000000000000000000101 M
b00000000000000000000000000000101 N
1O
b00000000000000000000000000001010 Q
b00000000000000000000000000001010 R
b00000000000000000000000000001010 S
b00010100101000001111111111111010 T
b00000 V
b00000 W
0X
1]
b000101 ^
b01 _
0`
0b
1f
b01 h
b111010 i
b0110 j
b00000000000000000000000000000000 l
b0110 m
1n
b00000000000000000000000000000000 p
0r
b00000000000000000000000000000000 t
b00000000000000000000000000000000 v
0w
b000000000000000000000000000000000 x
1y
b00000 #"
b00000 %"
b11111111111111111111111111111010 ("
b00000000000000000000000000000000 )"
0*"
b00000000000000000000000000000101 /"
b00000010100000111111111111101000 0"
b00000000000000000000000000000101 1"
b00000000000000000000000000001011 3"
b00000000000000000000000000000101 4"
b00000000000000000000000000000101 5"
16"
b1111111111111010 7"
b11111111111111111111111111111010 8"
#330000000
0!
0$
0O
0]
0y
#340000000
1!
1$
1&
1*
0.
0/
b10 0
b0010 1
b00110 2
b00000000000000000000000000000101 3
b00000000000000000000000000000110 4
b00000000011000000011000000100000 5
b00000000000000000011000000100000 <
b00000001100000001100000010000000 >
b00000000000000000000000000000110 ?
b00000000000000000000000000000110 @
b00000000000000000011000000100110 A
b00000000000000000000000000000101 B
b00000000000000000000000000000110 E
b000000000000000000000000000000110 G
b00000000000000000000000000000110 H
b00000000000000000011000000100000 I
b00000000000000000011000000100110 K
b000000000000000000011000000100110 M
b00000000000000000000000000000110 N
1O
b00000000000000000000000000000101 Q
b00000000000000000000000000000101 R
b00000000000000000000000000000101 S
b00000000011000000011000000100000 T
b00011 U
b00110 W
1X
1]
b000000 ^
b10 _
1a
1b
0f
b10 h
b100000 i
b0010 j
b0010 m
1y
b00110 $"
b00110 %"
1&"
b00000000000000000011000000100000 ("
b00000000000000000000000000000110 /"
b00000001100000001100000010000000 0"
b00000000000000000000000000000110 1"
b00000000000000000000000000000110 3"
b00000000000000000011000000100110 4"
b00000000000000000000000000000110 5"
06"
b0011000000100000 7"
b00000000000000000011000000100000 8"
#350000000
0!
0$
0O
0]
0y
#360000000
1!
1$
0&
1'
1(
0*
b00 0
b0010 1
b00110 2
b00000000000000000000000000000110 3
b00000000000000000000000000000111 4
b10101100100001100000000000000000 5
b00000000000000000000000000000000 <
b00000010000110000000000000000000 >
b00000000000000000000000000000111 ?
b00000000000000000000000000000111 @
b00000000000000000000000000000111 A
b00000000000000000000000000000110 B
b00000000000000000000000000000111 E
b000000000000000000000000000000111 G
b00000000000000000000000000000111 H
b00000000000000000000000000000000 I
b00000000000000000000000000000111 K
b000000000000000000000000000000111 M
b00000000000000000000000000000111 N
1O
b00000000000000000000000000000110 Q
b00000000000000000000000000000110 R
b00000000000000000000000000000110 S
b10101100100001100000000000000000 T
b00100 U
b00110 V
b00110 W
0X
1]
b101011 ^
b00 _
1`
0a
0b
1d
b00 h
b000000 i
b0010 j
b0010 m
1y
1!"
b00110 #"
b00000 $"
b00110 %"
0&"
b00000000000000000000000000000000 ("
1*"
b00000000000000000000000000000111 /"
b00000010000110000000000000000000 0"
b00000000000000000000000000000111 1"
b00000000000000000000000000000111 3"
b00000000000000000000000000000111 4"
b00000000000000000000000000000111 5"
b0000000000000000 7"
b00000000000000000000000000000000 8"
#370000000
0!
0$
0O
0]
0y
